{
    "name": "pf2qr",
    "title": "Pathfinder 2e Quick Rolls",
    "description": "Adds a readout after attacks featuring success/failure, and a button to place templates for spells.",
    "author": "Darth_Apples & Liquid-Sonic",
    "version": "1.4.4.006",
    "minimumCoreVersion": "0.5.0",
    "esmodules": [ 
        "pf2qr-main.js"
    ],
    "socket" : true,
    "url":"https://gitlab.com/gravenimageerd/pf2qr",
    "manifest":"https://gitlab.com/gravenimagerd/pf2qr/raw/master/module/module.json",
    "download":"https://gitlab.com/gravenimagerd/pf2qr/-/jobs/artifacts/0.0.6/raw/p2qr-master.zip?job=build"
  }
